…
For total net donations, the Democrats again come out on top, outraising Republicans by about $514K, a difference of about 49% more. The Libertarian Pary was a distant third.

## Source: local data frame [24 x 4]
## Groups: cand_nm [24]
## 
##                      cand_nm can_par_aff net_donations transactions
##                       <fctr>      <fctr>         <dbl>        <int>
## 1    Clinton, Hillary Rodham         DEM    12832937.5       119288
## 2           Trump, Donald J.         REP     4181681.3        30828
## 3           Sanders, Bernard         DEM     2333003.3        59627
## 4  Cruz, Rafael Edward 'Ted'         REP     1344186.2        15544
## 5               Rubio, Marco         REP      896039.8         3094
## 6        Carson, Benjamin S.         REP      871031.4         9800
## 7            Kasich, John R.         REP      607373.1         1019
## 8                  Bush, Jeb         REP      453837.0          545
## 9   Christie, Christopher J.         REP      416191.0          307
## 10            Fiorina, Carly         REP      318830.8          965
## # ... with 14 more rows
…
If we look at the ratio of net_donations/transaction which gives us a measure of the size of each donation recieved per candidate, the leading candidates are on the smaller end of the scale. Although interesting to observe, this chart does not appear to have much significance since the candidates who dominate the election cycle do not have the higher net_donations per transaction. Top net_donation per transaction candidates Chris Christie, Martin OMalley, and Jeb Bush all fell by the wayside fairly early during the primary season.

## Source: local data frame [3,423 x 4]
## Groups: contbr_city [2,082]
## 
##      contbr_city can_par_aff net_donations transactions
##           <fctr>      <fctr>         <dbl>        <int>
## 1   PHILADELPHIA         DEM     3288858.2        30780
## 2     PITTSBURGH         DEM     1895003.8        18247
## 3     PITTSBURGH         REP      773767.9         3224
## 4   PHILADELPHIA         REP      392149.4         1738
## 5      WYNNEWOOD         DEM      248333.2         1371
## 6      BRYN MAWR         DEM      246330.7         1243
## 7  STATE COLLEGE         DEM      224549.9         2650
## 8       SCRANTON         DEM      212405.5          714
## 9      LANCASTER         REP      197345.8         1027
## 10     HAVERFORD         DEM      193640.3          907
## # ... with 3,413 more rows
…
