…
For total net donations, the Democrats again come out on top, outraising Republicans by about $514K, a difference of about 49% more. The Libertarian Pary was a distant third.



```
## Source: local data frame [24 x 4]
## Groups: cand_nm [24]
## 
##                      cand_nm can_par_aff net_donations transactions
##                       <fctr>      <fctr>         <dbl>        <int>
## 1    Clinton, Hillary Rodham         DEM    12832937.5       119288
## 2           Trump, Donald J.         REP     4181681.3        30828
## 3           Sanders, Bernard         DEM     2333003.3        59627
## 4  Cruz, Rafael Edward 'Ted'         REP     1344186.2        15544
## 5               Rubio, Marco         REP      896039.8         3094
## 6        Carson, Benjamin S.         REP      871031.4         9800
## 7            Kasich, John R.         REP      607373.1         1019
## 8                  Bush, Jeb         REP      453837.0          545
## 9   Christie, Christopher J.         REP      416191.0          307
## 10            Fiorina, Carly         REP      318830.8          965
## # ... with 14 more rows
```

The table above summarizes net donations and number of transactions for each candidate in the dataset. We see that Hillary Clinton by far has the most net donations as well as number of contribution transactions, followed by her opponent in the general election, Donald J. Trump, then Democratic primary runner up, Bernie Sanders, and then Republican primary runner-up, Ted Cruz.


What is the distribution of contribution transaction by reported occupation?

```
## # A tibble: 8,470 × 3
##                         contbr_occupation net_donations transactions
##                                    <fctr>         <dbl>        <int>
## 1                                 RETIRED     4823893.5        55594
## 2                                ATTORNEY     1529905.2         5909
## 3                   INFORMATION REQUESTED     1514763.2        10268
## 4                            NOT EMPLOYED      843374.0        17389
## 5                               PHYSICIAN      838826.2         5729
## 6                               HOMEMAKER      817707.9         3949
## 7  INFORMATION REQUESTED PER BEST EFFORTS      531658.4         1530
## 8                               PROFESSOR      517581.0         5817
## 9                               PRESIDENT      515914.2          967
## 10                             CONSULTANT      488822.7         2739
## # ... with 8,460 more rows
```
…
If we look at the ratio of net_donations/transaction which gives us a measure of the size of each donation recieved per candidate, the leading candidates are on the smaller end of the scale. Although interesting to observe, this chart does not appear to have much significance since the candidates who dominate the election cycle do not have the higher net_donations per transaction. Top net_donation per transaction candidates Chris Christie, Martin O'Malley, and Jeb Bush all fell by the wayside fairly early during the primary season.


```
## Source: local data frame [3,423 x 4]
## Groups: contbr_city [2,082]
## 
##      contbr_city can_par_aff net_donations transactions
##           <fctr>      <fctr>         <dbl>        <int>
## 1   PHILADELPHIA         DEM     3288858.2        30780
## 2     PITTSBURGH         DEM     1895003.8        18247
## 3     PITTSBURGH         REP      773767.9         3224
## 4   PHILADELPHIA         REP      392149.4         1738
## 5      WYNNEWOOD         DEM      248333.2         1371
## 6      BRYN MAWR         DEM      246330.7         1243
## 7  STATE COLLEGE         DEM      224549.9         2650
## 8       SCRANTON         DEM      212405.5          714
## 9      LANCASTER         REP      197345.8         1027
## 10     HAVERFORD         DEM      193640.3          907
## # ... with 3,413 more rows
```

In the table above, we explore the net_donations and number of transactions per city for each party affiliation. As expected, we see the major metro areas of Philadelphia and Pittburgh at the top of the list. Seven out of the top 10 city-party aggregated net donations are for Democratic candidates, which seems consistent with the widely known fact that major urban population centers tend to vote Democratic.




```
## # A tibble: 29,770 × 3
##    contbr_zip net_donations transactions
##         <int>         <dbl>        <int>
## 1       19382      48285.64          236
## 2       19041      41359.57           69
## 3       18940      40434.15          250
## 4       19380      39279.42          262
## 5       15143      38978.93          211
## 6       15317      38732.48          202
## 7       15241      38423.97          149
## 8       15238      38229.83          116
## 9       15301      37058.38          145
## 10      19073      37014.62          161
## # ... with 29,760 more rows
```

When we look at distribution of zip codes, we see 29K zip codes which is impossible since it exceeds the total number in Pennsylvania! I noticed many are 5 digit but some are 9 digit. I the create a column with only zips truncated to only 5 digits.





```
## # A tibble: 1,639 × 6
##      zip net_trans_dem net_trans_rep fraction_dem net_donations
##    <chr>         <int>         <int>        <dbl>         <dbl>
## 1  15004             1             0            1        100.00
## 2  15007             1             0            1         27.00
## 3  15047             1             0            1        100.00
## 4  15081             2             0            1        200.00
## 5  15104            24             0            1       2758.00
## 6  15127             9             0            1        310.00
## 7  15260             2             0            1        120.00
## 8  15265             1             0            1         20.00
## 9  15282             1             0            1        250.00
## 10 15289            20             0            1        901.23
## # ... with 1,629 more rows, and 1 more variables: transactions <int>
```
…
